('D:\\MyApp\\myapp\\Mazii_Search_App\\Source\\build\\DictionaryApp\\PYZ-00.pyz',
 [('multiprocessing.popen_spawn_posix',
   'C:\\Users\\tuang8ee\\AppData\\Local\\Programs\\Python\\Python39\\lib\\multiprocessing\\popen_spawn_posix.py',
   'PYMODULE'),
  ('multiprocessing.resource_tracker',
   'C:\\Users\\tuang8ee\\AppData\\Local\\Programs\\Python\\Python39\\lib\\multiprocessing\\resource_tracker.py',
   'PYMODULE'),
  ('threading',
   'C:\\Users\\tuang8ee\\AppData\\Local\\Programs\\Python\\Python39\\lib\\threading.py',
   'PYMODULE'),
  ('_threading_local',
   'C:\\Users\\tuang8ee\\AppData\\Local\\Programs\\Python\\Python39\\lib\\_threading_local.py',
   'PYMODULE'),
  ('contextlib',
   'C:\\Users\\tuang8ee\\AppData\\Local\\Programs\\Python\\Python39\\lib\\contextlib.py',
   'PYMODULE'),
  ('_strptime',
   'C:\\Users\\tuang8ee\\AppData\\Local\\Programs\\Python\\Python39\\lib\\_strptime.py',
   'PYMODULE'),
  ('datetime',
   'C:\\Users\\tuang8ee\\AppData\\Local\\Programs\\Python\\Python39\\lib\\datetime.py',
   'PYMODULE'),
  ('calendar',
   'C:\\Users\\tuang8ee\\AppData\\Local\\Programs\\Python\\Python39\\lib\\calendar.py',
   'PYMODULE'),
  ('argparse',
   'C:\\Users\\tuang8ee\\AppData\\Local\\Programs\\Python\\Python39\\lib\\argparse.py',
   'PYMODULE'),
  ('textwrap',
   'C:\\Users\\tuang8ee\\AppData\\Local\\Programs\\Python\\Python39\\lib\\textwrap.py',
   'PYMODULE'),
  ('shutil',
   'C:\\Users\\tuang8ee\\AppData\\Local\\Programs\\Python\\Python39\\lib\\shutil.py',
   'PYMODULE'),
  ('zipfile',
   'C:\\Users\\tuang8ee\\AppData\\Local\\Programs\\Python\\Python39\\lib\\zipfile.py',
   'PYMODULE'),
  ('py_compile',
   'C:\\Users\\tuang8ee\\AppData\\Local\\Programs\\Python\\Python39\\lib\\py_compile.py',
   'PYMODULE'),
  ('ntpath',
   'C:\\Users\\tuang8ee\\AppData\\Local\\Programs\\Python\\Python39\\lib\\ntpath.py',
   'PYMODULE'),
  ('string',
   'C:\\Users\\tuang8ee\\AppData\\Local\\Programs\\Python\\Python39\\lib\\string.py',
   'PYMODULE'),
  ('genericpath',
   'C:\\Users\\tuang8ee\\AppData\\Local\\Programs\\Python\\Python39\\lib\\genericpath.py',
   'PYMODULE'),
  ('importlib.machinery',
   'C:\\Users\\tuang8ee\\AppData\\Local\\Programs\\Python\\Python39\\lib\\importlib\\machinery.py',
   'PYMODULE'),
  ('importlib',
   'C:\\Users\\tuang8ee\\AppData\\Local\\Programs\\Python\\Python39\\lib\\importlib\\__init__.py',
   'PYMODULE'),
  ('importlib.abc',
   'C:\\Users\\tuang8ee\\AppData\\Local\\Programs\\Python\\Python39\\lib\\importlib\\abc.py',
   'PYMODULE'),
  ('typing',
   'C:\\Users\\tuang8ee\\AppData\\Local\\Programs\\Python\\Python39\\lib\\typing.py',
   'PYMODULE'),
  ('importlib._bootstrap',
   'C:\\Users\\tuang8ee\\AppData\\Local\\Programs\\Python\\Python39\\lib\\importlib\\_bootstrap.py',
   'PYMODULE'),
  ('importlib._bootstrap_external',
   'C:\\Users\\tuang8ee\\AppData\\Local\\Programs\\Python\\Python39\\lib\\importlib\\_bootstrap_external.py',
   'PYMODULE'),
  ('importlib.metadata',
   'C:\\Users\\tuang8ee\\AppData\\Local\\Programs\\Python\\Python39\\lib\\importlib\\metadata.py',
   'PYMODULE'),
  ('configparser',
   'C:\\Users\\tuang8ee\\AppData\\Local\\Programs\\Python\\Python39\\lib\\configparser.py',
   'PYMODULE'),
  ('pathlib',
   'C:\\Users\\tuang8ee\\AppData\\Local\\Programs\\Python\\Python39\\lib\\pathlib.py',
   'PYMODULE'),
  ('urllib.parse',
   'C:\\Users\\tuang8ee\\AppData\\Local\\Programs\\Python\\Python39\\lib\\urllib\\parse.py',
   'PYMODULE'),
  ('urllib',
   'C:\\Users\\tuang8ee\\AppData\\Local\\Programs\\Python\\Python39\\lib\\urllib\\__init__.py',
   'PYMODULE'),
  ('email',
   'C:\\Users\\tuang8ee\\AppData\\Local\\Programs\\Python\\Python39\\lib\\email\\__init__.py',
   'PYMODULE'),
  ('email.parser',
   'C:\\Users\\tuang8ee\\AppData\\Local\\Programs\\Python\\Python39\\lib\\email\\parser.py',
   'PYMODULE'),
  ('email._policybase',
   'C:\\Users\\tuang8ee\\AppData\\Local\\Programs\\Python\\Python39\\lib\\email\\_policybase.py',
   'PYMODULE'),
  ('email.utils',
   'C:\\Users\\tuang8ee\\AppData\\Local\\Programs\\Python\\Python39\\lib\\email\\utils.py',
   'PYMODULE'),
  ('email._parseaddr',
   'C:\\Users\\tuang8ee\\AppData\\Local\\Programs\\Python\\Python39\\lib\\email\\_parseaddr.py',
   'PYMODULE'),
  ('socket',
   'C:\\Users\\tuang8ee\\AppData\\Local\\Programs\\Python\\Python39\\lib\\socket.py',
   'PYMODULE'),
  ('selectors',
   'C:\\Users\\tuang8ee\\AppData\\Local\\Programs\\Python\\Python39\\lib\\selectors.py',
   'PYMODULE'),
  ('random',
   'C:\\Users\\tuang8ee\\AppData\\Local\\Programs\\Python\\Python39\\lib\\random.py',
   'PYMODULE'),
  ('statistics',
   'C:\\Users\\tuang8ee\\AppData\\Local\\Programs\\Python\\Python39\\lib\\statistics.py',
   'PYMODULE'),
  ('decimal',
   'C:\\Users\\tuang8ee\\AppData\\Local\\Programs\\Python\\Python39\\lib\\decimal.py',
   'PYMODULE'),
  ('_pydecimal',
   'C:\\Users\\tuang8ee\\AppData\\Local\\Programs\\Python\\Python39\\lib\\_pydecimal.py',
   'PYMODULE'),
  ('contextvars',
   'C:\\Users\\tuang8ee\\AppData\\Local\\Programs\\Python\\Python39\\lib\\contextvars.py',
   'PYMODULE'),
  ('fractions',
   'C:\\Users\\tuang8ee\\AppData\\Local\\Programs\\Python\\Python39\\lib\\fractions.py',
   'PYMODULE'),
  ('numbers',
   'C:\\Users\\tuang8ee\\AppData\\Local\\Programs\\Python\\Python39\\lib\\numbers.py',
   'PYMODULE'),
  ('hashlib',
   'C:\\Users\\tuang8ee\\AppData\\Local\\Programs\\Python\\Python39\\lib\\hashlib.py',
   'PYMODULE'),
  ('logging',
   'C:\\Users\\tuang8ee\\AppData\\Local\\Programs\\Python\\Python39\\lib\\logging\\__init__.py',
   'PYMODULE'),
  ('pickle',
   'C:\\Users\\tuang8ee\\AppData\\Local\\Programs\\Python\\Python39\\lib\\pickle.py',
   'PYMODULE'),
  ('pprint',
   'C:\\Users\\tuang8ee\\AppData\\Local\\Programs\\Python\\Python39\\lib\\pprint.py',
   'PYMODULE'),
  ('_compat_pickle',
   'C:\\Users\\tuang8ee\\AppData\\Local\\Programs\\Python\\Python39\\lib\\_compat_pickle.py',
   'PYMODULE'),
  ('bisect',
   'C:\\Users\\tuang8ee\\AppData\\Local\\Programs\\Python\\Python39\\lib\\bisect.py',
   'PYMODULE'),
  ('email.feedparser',
   'C:\\Users\\tuang8ee\\AppData\\Local\\Programs\\Python\\Python39\\lib\\email\\feedparser.py',
   'PYMODULE'),
  ('email.message',
   'C:\\Users\\tuang8ee\\AppData\\Local\\Programs\\Python\\Python39\\lib\\email\\message.py',
   'PYMODULE'),
  ('email.policy',
   'C:\\Users\\tuang8ee\\AppData\\Local\\Programs\\Python\\Python39\\lib\\email\\policy.py',
   'PYMODULE'),
  ('email.contentmanager',
   'C:\\Users\\tuang8ee\\AppData\\Local\\Programs\\Python\\Python39\\lib\\email\\contentmanager.py',
   'PYMODULE'),
  ('email.quoprimime',
   'C:\\Users\\tuang8ee\\AppData\\Local\\Programs\\Python\\Python39\\lib\\email\\quoprimime.py',
   'PYMODULE'),
  ('email.headerregistry',
   'C:\\Users\\tuang8ee\\AppData\\Local\\Programs\\Python\\Python39\\lib\\email\\headerregistry.py',
   'PYMODULE'),
  ('email.iterators',
   'C:\\Users\\tuang8ee\\AppData\\Local\\Programs\\Python\\Python39\\lib\\email\\iterators.py',
   'PYMODULE'),
  ('email.generator',
   'C:\\Users\\tuang8ee\\AppData\\Local\\Programs\\Python\\Python39\\lib\\email\\generator.py',
   'PYMODULE'),
  ('email._encoded_words',
   'C:\\Users\\tuang8ee\\AppData\\Local\\Programs\\Python\\Python39\\lib\\email\\_encoded_words.py',
   'PYMODULE'),
  ('base64',
   'C:\\Users\\tuang8ee\\AppData\\Local\\Programs\\Python\\Python39\\lib\\base64.py',
   'PYMODULE'),
  ('getopt',
   'C:\\Users\\tuang8ee\\AppData\\Local\\Programs\\Python\\Python39\\lib\\getopt.py',
   'PYMODULE'),
  ('quopri',
   'C:\\Users\\tuang8ee\\AppData\\Local\\Programs\\Python\\Python39\\lib\\quopri.py',
   'PYMODULE'),
  ('uu',
   'C:\\Users\\tuang8ee\\AppData\\Local\\Programs\\Python\\Python39\\lib\\uu.py',
   'PYMODULE'),
  ('optparse',
   'C:\\Users\\tuang8ee\\AppData\\Local\\Programs\\Python\\Python39\\lib\\optparse.py',
   'PYMODULE'),
  ('email._header_value_parser',
   'C:\\Users\\tuang8ee\\AppData\\Local\\Programs\\Python\\Python39\\lib\\email\\_header_value_parser.py',
   'PYMODULE'),
  ('email.header',
   'C:\\Users\\tuang8ee\\AppData\\Local\\Programs\\Python\\Python39\\lib\\email\\header.py',
   'PYMODULE'),
  ('email.base64mime',
   'C:\\Users\\tuang8ee\\AppData\\Local\\Programs\\Python\\Python39\\lib\\email\\base64mime.py',
   'PYMODULE'),
  ('email.charset',
   'C:\\Users\\tuang8ee\\AppData\\Local\\Programs\\Python\\Python39\\lib\\email\\charset.py',
   'PYMODULE'),
  ('email.encoders',
   'C:\\Users\\tuang8ee\\AppData\\Local\\Programs\\Python\\Python39\\lib\\email\\encoders.py',
   'PYMODULE'),
  ('email.errors',
   'C:\\Users\\tuang8ee\\AppData\\Local\\Programs\\Python\\Python39\\lib\\email\\errors.py',
   'PYMODULE'),
  ('csv',
   'C:\\Users\\tuang8ee\\AppData\\Local\\Programs\\Python\\Python39\\lib\\csv.py',
   'PYMODULE'),
  ('struct',
   'C:\\Users\\tuang8ee\\AppData\\Local\\Programs\\Python\\Python39\\lib\\struct.py',
   'PYMODULE'),
  ('posixpath',
   'C:\\Users\\tuang8ee\\AppData\\Local\\Programs\\Python\\Python39\\lib\\posixpath.py',
   'PYMODULE'),
  ('importlib.util',
   'C:\\Users\\tuang8ee\\AppData\\Local\\Programs\\Python\\Python39\\lib\\importlib\\util.py',
   'PYMODULE'),
  ('tarfile',
   'C:\\Users\\tuang8ee\\AppData\\Local\\Programs\\Python\\Python39\\lib\\tarfile.py',
   'PYMODULE'),
  ('gzip',
   'C:\\Users\\tuang8ee\\AppData\\Local\\Programs\\Python\\Python39\\lib\\gzip.py',
   'PYMODULE'),
  ('_compression',
   'C:\\Users\\tuang8ee\\AppData\\Local\\Programs\\Python\\Python39\\lib\\_compression.py',
   'PYMODULE'),
  ('lzma',
   'C:\\Users\\tuang8ee\\AppData\\Local\\Programs\\Python\\Python39\\lib\\lzma.py',
   'PYMODULE'),
  ('bz2',
   'C:\\Users\\tuang8ee\\AppData\\Local\\Programs\\Python\\Python39\\lib\\bz2.py',
   'PYMODULE'),
  ('fnmatch',
   'C:\\Users\\tuang8ee\\AppData\\Local\\Programs\\Python\\Python39\\lib\\fnmatch.py',
   'PYMODULE'),
  ('stat',
   'C:\\Users\\tuang8ee\\AppData\\Local\\Programs\\Python\\Python39\\lib\\stat.py',
   'PYMODULE'),
  ('copy',
   'C:\\Users\\tuang8ee\\AppData\\Local\\Programs\\Python\\Python39\\lib\\copy.py',
   'PYMODULE'),
  ('gettext',
   'C:\\Users\\tuang8ee\\AppData\\Local\\Programs\\Python\\Python39\\lib\\gettext.py',
   'PYMODULE'),
  ('signal',
   'C:\\Users\\tuang8ee\\AppData\\Local\\Programs\\Python\\Python39\\lib\\signal.py',
   'PYMODULE'),
  ('multiprocessing.util',
   'C:\\Users\\tuang8ee\\AppData\\Local\\Programs\\Python\\Python39\\lib\\multiprocessing\\util.py',
   'PYMODULE'),
  ('multiprocessing.forkserver',
   'C:\\Users\\tuang8ee\\AppData\\Local\\Programs\\Python\\Python39\\lib\\multiprocessing\\forkserver.py',
   'PYMODULE'),
  ('multiprocessing.connection',
   'C:\\Users\\tuang8ee\\AppData\\Local\\Programs\\Python\\Python39\\lib\\multiprocessing\\connection.py',
   'PYMODULE'),
  ('multiprocessing.resource_sharer',
   'C:\\Users\\tuang8ee\\AppData\\Local\\Programs\\Python\\Python39\\lib\\multiprocessing\\resource_sharer.py',
   'PYMODULE'),
  ('xmlrpc.client',
   'C:\\Users\\tuang8ee\\AppData\\Local\\Programs\\Python\\Python39\\lib\\xmlrpc\\client.py',
   'PYMODULE'),
  ('xmlrpc',
   'C:\\Users\\tuang8ee\\AppData\\Local\\Programs\\Python\\Python39\\lib\\xmlrpc\\__init__.py',
   'PYMODULE'),
  ('xml.parsers.expat',
   'C:\\Users\\tuang8ee\\AppData\\Local\\Programs\\Python\\Python39\\lib\\xml\\parsers\\expat.py',
   'PYMODULE'),
  ('xml.parsers',
   'C:\\Users\\tuang8ee\\AppData\\Local\\Programs\\Python\\Python39\\lib\\xml\\parsers\\__init__.py',
   'PYMODULE'),
  ('xml',
   'C:\\Users\\tuang8ee\\AppData\\Local\\Programs\\Python\\Python39\\lib\\xml\\__init__.py',
   'PYMODULE'),
  ('xml.sax.expatreader',
   'C:\\Users\\tuang8ee\\AppData\\Local\\Programs\\Python\\Python39\\lib\\xml\\sax\\expatreader.py',
   'PYMODULE'),
  ('xml.sax.saxutils',
   'C:\\Users\\tuang8ee\\AppData\\Local\\Programs\\Python\\Python39\\lib\\xml\\sax\\saxutils.py',
   'PYMODULE'),
  ('urllib.request',
   'C:\\Users\\tuang8ee\\AppData\\Local\\Programs\\Python\\Python39\\lib\\urllib\\request.py',
   'PYMODULE'),
  ('getpass',
   'C:\\Users\\tuang8ee\\AppData\\Local\\Programs\\Python\\Python39\\lib\\getpass.py',
   'PYMODULE'),
  ('nturl2path',
   'C:\\Users\\tuang8ee\\AppData\\Local\\Programs\\Python\\Python39\\lib\\nturl2path.py',
   'PYMODULE'),
  ('ftplib',
   'C:\\Users\\tuang8ee\\AppData\\Local\\Programs\\Python\\Python39\\lib\\ftplib.py',
   'PYMODULE'),
  ('netrc',
   'C:\\Users\\tuang8ee\\AppData\\Local\\Programs\\Python\\Python39\\lib\\netrc.py',
   'PYMODULE'),
  ('shlex',
   'C:\\Users\\tuang8ee\\AppData\\Local\\Programs\\Python\\Python39\\lib\\shlex.py',
   'PYMODULE'),
  ('mimetypes',
   'C:\\Users\\tuang8ee\\AppData\\Local\\Programs\\Python\\Python39\\lib\\mimetypes.py',
   'PYMODULE'),
  ('http.cookiejar',
   'C:\\Users\\tuang8ee\\AppData\\Local\\Programs\\Python\\Python39\\lib\\http\\cookiejar.py',
   'PYMODULE'),
  ('http',
   'C:\\Users\\tuang8ee\\AppData\\Local\\Programs\\Python\\Python39\\lib\\http\\__init__.py',
   'PYMODULE'),
  ('ssl',
   'C:\\Users\\tuang8ee\\AppData\\Local\\Programs\\Python\\Python39\\lib\\ssl.py',
   'PYMODULE'),
  ('urllib.response',
   'C:\\Users\\tuang8ee\\AppData\\Local\\Programs\\Python\\Python39\\lib\\urllib\\response.py',
   'PYMODULE'),
  ('urllib.error',
   'C:\\Users\\tuang8ee\\AppData\\Local\\Programs\\Python\\Python39\\lib\\urllib\\error.py',
   'PYMODULE'),
  ('xml.sax',
   'C:\\Users\\tuang8ee\\AppData\\Local\\Programs\\Python\\Python39\\lib\\xml\\sax\\__init__.py',
   'PYMODULE'),
  ('xml.sax.handler',
   'C:\\Users\\tuang8ee\\AppData\\Local\\Programs\\Python\\Python39\\lib\\xml\\sax\\handler.py',
   'PYMODULE'),
  ('xml.sax._exceptions',
   'C:\\Users\\tuang8ee\\AppData\\Local\\Programs\\Python\\Python39\\lib\\xml\\sax\\_exceptions.py',
   'PYMODULE'),
  ('xml.sax.xmlreader',
   'C:\\Users\\tuang8ee\\AppData\\Local\\Programs\\Python\\Python39\\lib\\xml\\sax\\xmlreader.py',
   'PYMODULE'),
  ('http.client',
   'C:\\Users\\tuang8ee\\AppData\\Local\\Programs\\Python\\Python39\\lib\\http\\client.py',
   'PYMODULE'),
  ('hmac',
   'C:\\Users\\tuang8ee\\AppData\\Local\\Programs\\Python\\Python39\\lib\\hmac.py',
   'PYMODULE'),
  ('tempfile',
   'C:\\Users\\tuang8ee\\AppData\\Local\\Programs\\Python\\Python39\\lib\\tempfile.py',
   'PYMODULE'),
  ('multiprocessing.process',
   'C:\\Users\\tuang8ee\\AppData\\Local\\Programs\\Python\\Python39\\lib\\multiprocessing\\process.py',
   'PYMODULE'),
  ('multiprocessing.context',
   'C:\\Users\\tuang8ee\\AppData\\Local\\Programs\\Python\\Python39\\lib\\multiprocessing\\context.py',
   'PYMODULE'),
  ('multiprocessing.popen_forkserver',
   'C:\\Users\\tuang8ee\\AppData\\Local\\Programs\\Python\\Python39\\lib\\multiprocessing\\popen_forkserver.py',
   'PYMODULE'),
  ('multiprocessing.sharedctypes',
   'C:\\Users\\tuang8ee\\AppData\\Local\\Programs\\Python\\Python39\\lib\\multiprocessing\\sharedctypes.py',
   'PYMODULE'),
  ('multiprocessing.heap',
   'C:\\Users\\tuang8ee\\AppData\\Local\\Programs\\Python\\Python39\\lib\\multiprocessing\\heap.py',
   'PYMODULE'),
  ('ctypes',
   'C:\\Users\\tuang8ee\\AppData\\Local\\Programs\\Python\\Python39\\lib\\ctypes\\__init__.py',
   'PYMODULE'),
  ('ctypes._endian',
   'C:\\Users\\tuang8ee\\AppData\\Local\\Programs\\Python\\Python39\\lib\\ctypes\\_endian.py',
   'PYMODULE'),
  ('multiprocessing.pool',
   'C:\\Users\\tuang8ee\\AppData\\Local\\Programs\\Python\\Python39\\lib\\multiprocessing\\pool.py',
   'PYMODULE'),
  ('multiprocessing.dummy',
   'C:\\Users\\tuang8ee\\AppData\\Local\\Programs\\Python\\Python39\\lib\\multiprocessing\\dummy\\__init__.py',
   'PYMODULE'),
  ('multiprocessing.dummy.connection',
   'C:\\Users\\tuang8ee\\AppData\\Local\\Programs\\Python\\Python39\\lib\\multiprocessing\\dummy\\connection.py',
   'PYMODULE'),
  ('queue',
   'C:\\Users\\tuang8ee\\AppData\\Local\\Programs\\Python\\Python39\\lib\\queue.py',
   'PYMODULE'),
  ('multiprocessing.queues',
   'C:\\Users\\tuang8ee\\AppData\\Local\\Programs\\Python\\Python39\\lib\\multiprocessing\\queues.py',
   'PYMODULE'),
  ('multiprocessing.synchronize',
   'C:\\Users\\tuang8ee\\AppData\\Local\\Programs\\Python\\Python39\\lib\\multiprocessing\\synchronize.py',
   'PYMODULE'),
  ('multiprocessing.managers',
   'C:\\Users\\tuang8ee\\AppData\\Local\\Programs\\Python\\Python39\\lib\\multiprocessing\\managers.py',
   'PYMODULE'),
  ('multiprocessing.shared_memory',
   'C:\\Users\\tuang8ee\\AppData\\Local\\Programs\\Python\\Python39\\lib\\multiprocessing\\shared_memory.py',
   'PYMODULE'),
  ('secrets',
   'C:\\Users\\tuang8ee\\AppData\\Local\\Programs\\Python\\Python39\\lib\\secrets.py',
   'PYMODULE'),
  ('multiprocessing.reduction',
   'C:\\Users\\tuang8ee\\AppData\\Local\\Programs\\Python\\Python39\\lib\\multiprocessing\\reduction.py',
   'PYMODULE'),
  ('multiprocessing.popen_fork',
   'C:\\Users\\tuang8ee\\AppData\\Local\\Programs\\Python\\Python39\\lib\\multiprocessing\\popen_fork.py',
   'PYMODULE'),
  ('multiprocessing.popen_spawn_win32',
   'C:\\Users\\tuang8ee\\AppData\\Local\\Programs\\Python\\Python39\\lib\\multiprocessing\\popen_spawn_win32.py',
   'PYMODULE'),
  ('subprocess',
   'C:\\Users\\tuang8ee\\AppData\\Local\\Programs\\Python\\Python39\\lib\\subprocess.py',
   'PYMODULE'),
  ('multiprocessing.spawn',
   'C:\\Users\\tuang8ee\\AppData\\Local\\Programs\\Python\\Python39\\lib\\multiprocessing\\spawn.py',
   'PYMODULE'),
  ('runpy',
   'C:\\Users\\tuang8ee\\AppData\\Local\\Programs\\Python\\Python39\\lib\\runpy.py',
   'PYMODULE'),
  ('pkgutil',
   'C:\\Users\\tuang8ee\\AppData\\Local\\Programs\\Python\\Python39\\lib\\pkgutil.py',
   'PYMODULE'),
  ('zipimport',
   'C:\\Users\\tuang8ee\\AppData\\Local\\Programs\\Python\\Python39\\lib\\zipimport.py',
   'PYMODULE'),
  ('inspect',
   'C:\\Users\\tuang8ee\\AppData\\Local\\Programs\\Python\\Python39\\lib\\inspect.py',
   'PYMODULE'),
  ('token',
   'C:\\Users\\tuang8ee\\AppData\\Local\\Programs\\Python\\Python39\\lib\\token.py',
   'PYMODULE'),
  ('dis',
   'C:\\Users\\tuang8ee\\AppData\\Local\\Programs\\Python\\Python39\\lib\\dis.py',
   'PYMODULE'),
  ('opcode',
   'C:\\Users\\tuang8ee\\AppData\\Local\\Programs\\Python\\Python39\\lib\\opcode.py',
   'PYMODULE'),
  ('ast',
   'C:\\Users\\tuang8ee\\AppData\\Local\\Programs\\Python\\Python39\\lib\\ast.py',
   'PYMODULE'),
  ('multiprocessing',
   'C:\\Users\\tuang8ee\\AppData\\Local\\Programs\\Python\\Python39\\lib\\multiprocessing\\__init__.py',
   'PYMODULE'),
  ('stringprep',
   'C:\\Users\\tuang8ee\\AppData\\Local\\Programs\\Python\\Python39\\lib\\stringprep.py',
   'PYMODULE'),
  ('tracemalloc',
   'C:\\Users\\tuang8ee\\AppData\\Local\\Programs\\Python\\Python39\\lib\\tracemalloc.py',
   'PYMODULE'),
  ('_py_abc',
   'C:\\Users\\tuang8ee\\AppData\\Local\\Programs\\Python\\Python39\\lib\\_py_abc.py',
   'PYMODULE'),
  ('ViewModel.MainCtrlViewModel',
   'D:\\MyApp\\myapp\\Mazii_Search_App\\Source\\ViewModel\\MainCtrlViewModel.py',
   'PYMODULE'),
  ('ViewModel', '-', 'PYMODULE'),
  ('Model.FileProcess',
   'D:\\MyApp\\myapp\\Mazii_Search_App\\Source\\Model\\FileProcess.py',
   'PYMODULE'),
  ('Model', '-', 'PYMODULE'),
  ('json',
   'C:\\Users\\tuang8ee\\AppData\\Local\\Programs\\Python\\Python39\\lib\\json\\__init__.py',
   'PYMODULE'),
  ('json.encoder',
   'C:\\Users\\tuang8ee\\AppData\\Local\\Programs\\Python\\Python39\\lib\\json\\encoder.py',
   'PYMODULE'),
  ('json.decoder',
   'C:\\Users\\tuang8ee\\AppData\\Local\\Programs\\Python\\Python39\\lib\\json\\decoder.py',
   'PYMODULE'),
  ('json.scanner',
   'C:\\Users\\tuang8ee\\AppData\\Local\\Programs\\Python\\Python39\\lib\\json\\scanner.py',
   'PYMODULE'),
  ('ViewModel.DictionaryViewModel',
   'D:\\MyApp\\myapp\\Mazii_Search_App\\Source\\ViewModel\\DictionaryViewModel.py',
   'PYMODULE'),
  ('Model.InputModel',
   'D:\\MyApp\\myapp\\Mazii_Search_App\\Source\\Model\\InputModel.py',
   'PYMODULE'),
  ('mouse',
   'C:\\Users\\tuang8ee\\AppData\\Local\\Programs\\Python\\Python39\\lib\\site-packages\\mouse\\__init__.py',
   'PYMODULE'),
  ('mouse._generic',
   'C:\\Users\\tuang8ee\\AppData\\Local\\Programs\\Python\\Python39\\lib\\site-packages\\mouse\\_generic.py',
   'PYMODULE'),
  ('mouse._mouse_event',
   'C:\\Users\\tuang8ee\\AppData\\Local\\Programs\\Python\\Python39\\lib\\site-packages\\mouse\\_mouse_event.py',
   'PYMODULE'),
  ('mouse._nixmouse',
   'C:\\Users\\tuang8ee\\AppData\\Local\\Programs\\Python\\Python39\\lib\\site-packages\\mouse\\_nixmouse.py',
   'PYMODULE'),
  ('ctypes.util',
   'C:\\Users\\tuang8ee\\AppData\\Local\\Programs\\Python\\Python39\\lib\\ctypes\\util.py',
   'PYMODULE'),
  ('ctypes._aix',
   'C:\\Users\\tuang8ee\\AppData\\Local\\Programs\\Python\\Python39\\lib\\ctypes\\_aix.py',
   'PYMODULE'),
  ('ctypes.macholib.dyld',
   'C:\\Users\\tuang8ee\\AppData\\Local\\Programs\\Python\\Python39\\lib\\ctypes\\macholib\\dyld.py',
   'PYMODULE'),
  ('ctypes.macholib',
   'C:\\Users\\tuang8ee\\AppData\\Local\\Programs\\Python\\Python39\\lib\\ctypes\\macholib\\__init__.py',
   'PYMODULE'),
  ('ctypes.macholib.dylib',
   'C:\\Users\\tuang8ee\\AppData\\Local\\Programs\\Python\\Python39\\lib\\ctypes\\macholib\\dylib.py',
   'PYMODULE'),
  ('ctypes.macholib.framework',
   'C:\\Users\\tuang8ee\\AppData\\Local\\Programs\\Python\\Python39\\lib\\ctypes\\macholib\\framework.py',
   'PYMODULE'),
  ('mouse._nixcommon',
   'C:\\Users\\tuang8ee\\AppData\\Local\\Programs\\Python\\Python39\\lib\\site-packages\\mouse\\_nixcommon.py',
   'PYMODULE'),
  ('glob',
   'C:\\Users\\tuang8ee\\AppData\\Local\\Programs\\Python\\Python39\\lib\\glob.py',
   'PYMODULE'),
  ('mouse._winmouse',
   'C:\\Users\\tuang8ee\\AppData\\Local\\Programs\\Python\\Python39\\lib\\site-packages\\mouse\\_winmouse.py',
   'PYMODULE'),
  ('ctypes.wintypes',
   'C:\\Users\\tuang8ee\\AppData\\Local\\Programs\\Python\\Python39\\lib\\ctypes\\wintypes.py',
   'PYMODULE'),
  ('platform',
   'C:\\Users\\tuang8ee\\AppData\\Local\\Programs\\Python\\Python39\\lib\\platform.py',
   'PYMODULE'),
  ('pyperclip',
   'C:\\Users\\tuang8ee\\AppData\\Local\\Programs\\Python\\Python39\\lib\\site-packages\\pyperclip\\__init__.py',
   'PYMODULE'),
  ('PyQt5',
   'C:\\Users\\tuang8ee\\AppData\\Local\\Programs\\Python\\Python39\\lib\\site-packages\\PyQt5\\__init__.py',
   'PYMODULE'),
  ('pyautogui',
   'C:\\Users\\tuang8ee\\AppData\\Local\\Programs\\Python\\Python39\\lib\\site-packages\\pyautogui\\__init__.py',
   'PYMODULE'),
  ('pyautogui._pyautogui_x11',
   'C:\\Users\\tuang8ee\\AppData\\Local\\Programs\\Python\\Python39\\lib\\site-packages\\pyautogui\\_pyautogui_x11.py',
   'PYMODULE'),
  ('pyautogui._pyautogui_win',
   'C:\\Users\\tuang8ee\\AppData\\Local\\Programs\\Python\\Python39\\lib\\site-packages\\pyautogui\\_pyautogui_win.py',
   'PYMODULE'),
  ('pyautogui._pyautogui_osx',
   'C:\\Users\\tuang8ee\\AppData\\Local\\Programs\\Python\\Python39\\lib\\site-packages\\pyautogui\\_pyautogui_osx.py',
   'PYMODULE'),
  ('pygetwindow',
   'C:\\Users\\tuang8ee\\AppData\\Local\\Programs\\Python\\Python39\\lib\\site-packages\\pygetwindow\\__init__.py',
   'PYMODULE'),
  ('pygetwindow._pygetwindow_win',
   'C:\\Users\\tuang8ee\\AppData\\Local\\Programs\\Python\\Python39\\lib\\site-packages\\pygetwindow\\_pygetwindow_win.py',
   'PYMODULE'),
  ('pygetwindow._pygetwindow_macos',
   'C:\\Users\\tuang8ee\\AppData\\Local\\Programs\\Python\\Python39\\lib\\site-packages\\pygetwindow\\_pygetwindow_macos.py',
   'PYMODULE'),
  ('pyrect',
   'C:\\Users\\tuang8ee\\AppData\\Local\\Programs\\Python\\Python39\\lib\\site-packages\\pyrect\\__init__.py',
   'PYMODULE'),
  ('doctest',
   'C:\\Users\\tuang8ee\\AppData\\Local\\Programs\\Python\\Python39\\lib\\doctest.py',
   'PYMODULE'),
  ('unittest',
   'C:\\Users\\tuang8ee\\AppData\\Local\\Programs\\Python\\Python39\\lib\\unittest\\__init__.py',
   'PYMODULE'),
  ('unittest.async_case',
   'C:\\Users\\tuang8ee\\AppData\\Local\\Programs\\Python\\Python39\\lib\\unittest\\async_case.py',
   'PYMODULE'),
  ('asyncio',
   'C:\\Users\\tuang8ee\\AppData\\Local\\Programs\\Python\\Python39\\lib\\asyncio\\__init__.py',
   'PYMODULE'),
  ('asyncio.unix_events',
   'C:\\Users\\tuang8ee\\AppData\\Local\\Programs\\Python\\Python39\\lib\\asyncio\\unix_events.py',
   'PYMODULE'),
  ('asyncio.log',
   'C:\\Users\\tuang8ee\\AppData\\Local\\Programs\\Python\\Python39\\lib\\asyncio\\log.py',
   'PYMODULE'),
  ('asyncio.windows_events',
   'C:\\Users\\tuang8ee\\AppData\\Local\\Programs\\Python\\Python39\\lib\\asyncio\\windows_events.py',
   'PYMODULE'),
  ('asyncio.windows_utils',
   'C:\\Users\\tuang8ee\\AppData\\Local\\Programs\\Python\\Python39\\lib\\asyncio\\windows_utils.py',
   'PYMODULE'),
  ('asyncio.selector_events',
   'C:\\Users\\tuang8ee\\AppData\\Local\\Programs\\Python\\Python39\\lib\\asyncio\\selector_events.py',
   'PYMODULE'),
  ('asyncio.proactor_events',
   'C:\\Users\\tuang8ee\\AppData\\Local\\Programs\\Python\\Python39\\lib\\asyncio\\proactor_events.py',
   'PYMODULE'),
  ('asyncio.base_subprocess',
   'C:\\Users\\tuang8ee\\AppData\\Local\\Programs\\Python\\Python39\\lib\\asyncio\\base_subprocess.py',
   'PYMODULE'),
  ('asyncio.threads',
   'C:\\Users\\tuang8ee\\AppData\\Local\\Programs\\Python\\Python39\\lib\\asyncio\\threads.py',
   'PYMODULE'),
  ('asyncio.subprocess',
   'C:\\Users\\tuang8ee\\AppData\\Local\\Programs\\Python\\Python39\\lib\\asyncio\\subprocess.py',
   'PYMODULE'),
  ('asyncio.streams',
   'C:\\Users\\tuang8ee\\AppData\\Local\\Programs\\Python\\Python39\\lib\\asyncio\\streams.py',
   'PYMODULE'),
  ('asyncio.queues',
   'C:\\Users\\tuang8ee\\AppData\\Local\\Programs\\Python\\Python39\\lib\\asyncio\\queues.py',
   'PYMODULE'),
  ('asyncio.runners',
   'C:\\Users\\tuang8ee\\AppData\\Local\\Programs\\Python\\Python39\\lib\\asyncio\\runners.py',
   'PYMODULE'),
  ('asyncio.events',
   'C:\\Users\\tuang8ee\\AppData\\Local\\Programs\\Python\\Python39\\lib\\asyncio\\events.py',
   'PYMODULE'),
  ('asyncio.base_events',
   'C:\\Users\\tuang8ee\\AppData\\Local\\Programs\\Python\\Python39\\lib\\asyncio\\base_events.py',
   'PYMODULE'),
  ('concurrent.futures',
   'C:\\Users\\tuang8ee\\AppData\\Local\\Programs\\Python\\Python39\\lib\\concurrent\\futures\\__init__.py',
   'PYMODULE'),
  ('concurrent.futures.thread',
   'C:\\Users\\tuang8ee\\AppData\\Local\\Programs\\Python\\Python39\\lib\\concurrent\\futures\\thread.py',
   'PYMODULE'),
  ('concurrent.futures.process',
   'C:\\Users\\tuang8ee\\AppData\\Local\\Programs\\Python\\Python39\\lib\\concurrent\\futures\\process.py',
   'PYMODULE'),
  ('concurrent.futures._base',
   'C:\\Users\\tuang8ee\\AppData\\Local\\Programs\\Python\\Python39\\lib\\concurrent\\futures\\_base.py',
   'PYMODULE'),
  ('concurrent',
   'C:\\Users\\tuang8ee\\AppData\\Local\\Programs\\Python\\Python39\\lib\\concurrent\\__init__.py',
   'PYMODULE'),
  ('asyncio.trsock',
   'C:\\Users\\tuang8ee\\AppData\\Local\\Programs\\Python\\Python39\\lib\\asyncio\\trsock.py',
   'PYMODULE'),
  ('asyncio.staggered',
   'C:\\Users\\tuang8ee\\AppData\\Local\\Programs\\Python\\Python39\\lib\\asyncio\\staggered.py',
   'PYMODULE'),
  ('asyncio.tasks',
   'C:\\Users\\tuang8ee\\AppData\\Local\\Programs\\Python\\Python39\\lib\\asyncio\\tasks.py',
   'PYMODULE'),
  ('asyncio.base_tasks',
   'C:\\Users\\tuang8ee\\AppData\\Local\\Programs\\Python\\Python39\\lib\\asyncio\\base_tasks.py',
   'PYMODULE'),
  ('asyncio.locks',
   'C:\\Users\\tuang8ee\\AppData\\Local\\Programs\\Python\\Python39\\lib\\asyncio\\locks.py',
   'PYMODULE'),
  ('asyncio.sslproto',
   'C:\\Users\\tuang8ee\\AppData\\Local\\Programs\\Python\\Python39\\lib\\asyncio\\sslproto.py',
   'PYMODULE'),
  ('asyncio.transports',
   'C:\\Users\\tuang8ee\\AppData\\Local\\Programs\\Python\\Python39\\lib\\asyncio\\transports.py',
   'PYMODULE'),
  ('asyncio.protocols',
   'C:\\Users\\tuang8ee\\AppData\\Local\\Programs\\Python\\Python39\\lib\\asyncio\\protocols.py',
   'PYMODULE'),
  ('asyncio.futures',
   'C:\\Users\\tuang8ee\\AppData\\Local\\Programs\\Python\\Python39\\lib\\asyncio\\futures.py',
   'PYMODULE'),
  ('asyncio.exceptions',
   'C:\\Users\\tuang8ee\\AppData\\Local\\Programs\\Python\\Python39\\lib\\asyncio\\exceptions.py',
   'PYMODULE'),
  ('asyncio.coroutines',
   'C:\\Users\\tuang8ee\\AppData\\Local\\Programs\\Python\\Python39\\lib\\asyncio\\coroutines.py',
   'PYMODULE'),
  ('asyncio.base_futures',
   'C:\\Users\\tuang8ee\\AppData\\Local\\Programs\\Python\\Python39\\lib\\asyncio\\base_futures.py',
   'PYMODULE'),
  ('asyncio.format_helpers',
   'C:\\Users\\tuang8ee\\AppData\\Local\\Programs\\Python\\Python39\\lib\\asyncio\\format_helpers.py',
   'PYMODULE'),
  ('asyncio.constants',
   'C:\\Users\\tuang8ee\\AppData\\Local\\Programs\\Python\\Python39\\lib\\asyncio\\constants.py',
   'PYMODULE'),
  ('unittest.signals',
   'C:\\Users\\tuang8ee\\AppData\\Local\\Programs\\Python\\Python39\\lib\\unittest\\signals.py',
   'PYMODULE'),
  ('unittest.main',
   'C:\\Users\\tuang8ee\\AppData\\Local\\Programs\\Python\\Python39\\lib\\unittest\\main.py',
   'PYMODULE'),
  ('unittest.runner',
   'C:\\Users\\tuang8ee\\AppData\\Local\\Programs\\Python\\Python39\\lib\\unittest\\runner.py',
   'PYMODULE'),
  ('unittest.loader',
   'C:\\Users\\tuang8ee\\AppData\\Local\\Programs\\Python\\Python39\\lib\\unittest\\loader.py',
   'PYMODULE'),
  ('unittest.suite',
   'C:\\Users\\tuang8ee\\AppData\\Local\\Programs\\Python\\Python39\\lib\\unittest\\suite.py',
   'PYMODULE'),
  ('unittest.case',
   'C:\\Users\\tuang8ee\\AppData\\Local\\Programs\\Python\\Python39\\lib\\unittest\\case.py',
   'PYMODULE'),
  ('unittest._log',
   'C:\\Users\\tuang8ee\\AppData\\Local\\Programs\\Python\\Python39\\lib\\unittest\\_log.py',
   'PYMODULE'),
  ('unittest.result',
   'C:\\Users\\tuang8ee\\AppData\\Local\\Programs\\Python\\Python39\\lib\\unittest\\result.py',
   'PYMODULE'),
  ('unittest.util',
   'C:\\Users\\tuang8ee\\AppData\\Local\\Programs\\Python\\Python39\\lib\\unittest\\util.py',
   'PYMODULE'),
  ('pdb',
   'C:\\Users\\tuang8ee\\AppData\\Local\\Programs\\Python\\Python39\\lib\\pdb.py',
   'PYMODULE'),
  ('pydoc',
   'C:\\Users\\tuang8ee\\AppData\\Local\\Programs\\Python\\Python39\\lib\\pydoc.py',
   'PYMODULE'),
  ('webbrowser',
   'C:\\Users\\tuang8ee\\AppData\\Local\\Programs\\Python\\Python39\\lib\\webbrowser.py',
   'PYMODULE'),
  ('http.server',
   'C:\\Users\\tuang8ee\\AppData\\Local\\Programs\\Python\\Python39\\lib\\http\\server.py',
   'PYMODULE'),
  ('socketserver',
   'C:\\Users\\tuang8ee\\AppData\\Local\\Programs\\Python\\Python39\\lib\\socketserver.py',
   'PYMODULE'),
  ('html',
   'C:\\Users\\tuang8ee\\AppData\\Local\\Programs\\Python\\Python39\\lib\\html\\__init__.py',
   'PYMODULE'),
  ('html.entities',
   'C:\\Users\\tuang8ee\\AppData\\Local\\Programs\\Python\\Python39\\lib\\html\\entities.py',
   'PYMODULE'),
  ('pydoc_data.topics',
   'C:\\Users\\tuang8ee\\AppData\\Local\\Programs\\Python\\Python39\\lib\\pydoc_data\\topics.py',
   'PYMODULE'),
  ('pydoc_data',
   'C:\\Users\\tuang8ee\\AppData\\Local\\Programs\\Python\\Python39\\lib\\pydoc_data\\__init__.py',
   'PYMODULE'),
  ('tty',
   'C:\\Users\\tuang8ee\\AppData\\Local\\Programs\\Python\\Python39\\lib\\tty.py',
   'PYMODULE'),
  ('sysconfig',
   'C:\\Users\\tuang8ee\\AppData\\Local\\Programs\\Python\\Python39\\lib\\sysconfig.py',
   'PYMODULE'),
  ('_aix_support',
   'C:\\Users\\tuang8ee\\AppData\\Local\\Programs\\Python\\Python39\\lib\\_aix_support.py',
   'PYMODULE'),
  ('_bootsubprocess',
   'C:\\Users\\tuang8ee\\AppData\\Local\\Programs\\Python\\Python39\\lib\\_bootsubprocess.py',
   'PYMODULE'),
  ('code',
   'C:\\Users\\tuang8ee\\AppData\\Local\\Programs\\Python\\Python39\\lib\\code.py',
   'PYMODULE'),
  ('codeop',
   'C:\\Users\\tuang8ee\\AppData\\Local\\Programs\\Python\\Python39\\lib\\codeop.py',
   'PYMODULE'),
  ('bdb',
   'C:\\Users\\tuang8ee\\AppData\\Local\\Programs\\Python\\Python39\\lib\\bdb.py',
   'PYMODULE'),
  ('cmd',
   'C:\\Users\\tuang8ee\\AppData\\Local\\Programs\\Python\\Python39\\lib\\cmd.py',
   'PYMODULE'),
  ('difflib',
   'C:\\Users\\tuang8ee\\AppData\\Local\\Programs\\Python\\Python39\\lib\\difflib.py',
   'PYMODULE'),
  ('mouseinfo',
   'C:\\Users\\tuang8ee\\AppData\\Local\\Programs\\Python\\Python39\\lib\\site-packages\\mouseinfo\\__init__.py',
   'PYMODULE'),
  ('tkinter.ttk',
   'C:\\Users\\tuang8ee\\AppData\\Local\\Programs\\Python\\Python39\\lib\\tkinter\\ttk.py',
   'PYMODULE'),
  ('PIL.ImageGrab',
   'C:\\Users\\tuang8ee\\AppData\\Local\\Programs\\Python\\Python39\\lib\\site-packages\\PIL\\ImageGrab.py',
   'PYMODULE'),
  ('PIL.BmpImagePlugin',
   'C:\\Users\\tuang8ee\\AppData\\Local\\Programs\\Python\\Python39\\lib\\site-packages\\PIL\\BmpImagePlugin.py',
   'PYMODULE'),
  ('PIL._binary',
   'C:\\Users\\tuang8ee\\AppData\\Local\\Programs\\Python\\Python39\\lib\\site-packages\\PIL\\_binary.py',
   'PYMODULE'),
  ('PIL.ImagePalette',
   'C:\\Users\\tuang8ee\\AppData\\Local\\Programs\\Python\\Python39\\lib\\site-packages\\PIL\\ImagePalette.py',
   'PYMODULE'),
  ('PIL.PaletteFile',
   'C:\\Users\\tuang8ee\\AppData\\Local\\Programs\\Python\\Python39\\lib\\site-packages\\PIL\\PaletteFile.py',
   'PYMODULE'),
  ('PIL.ImageColor',
   'C:\\Users\\tuang8ee\\AppData\\Local\\Programs\\Python\\Python39\\lib\\site-packages\\PIL\\ImageColor.py',
   'PYMODULE'),
  ('colorsys',
   'C:\\Users\\tuang8ee\\AppData\\Local\\Programs\\Python\\Python39\\lib\\colorsys.py',
   'PYMODULE'),
  ('PIL.GimpPaletteFile',
   'C:\\Users\\tuang8ee\\AppData\\Local\\Programs\\Python\\Python39\\lib\\site-packages\\PIL\\GimpPaletteFile.py',
   'PYMODULE'),
  ('PIL.GimpGradientFile',
   'C:\\Users\\tuang8ee\\AppData\\Local\\Programs\\Python\\Python39\\lib\\site-packages\\PIL\\GimpGradientFile.py',
   'PYMODULE'),
  ('PIL.ImageFile',
   'C:\\Users\\tuang8ee\\AppData\\Local\\Programs\\Python\\Python39\\lib\\site-packages\\PIL\\ImageFile.py',
   'PYMODULE'),
  ('PIL._util',
   'C:\\Users\\tuang8ee\\AppData\\Local\\Programs\\Python\\Python39\\lib\\site-packages\\PIL\\_util.py',
   'PYMODULE'),
  ('PIL.PngImagePlugin',
   'C:\\Users\\tuang8ee\\AppData\\Local\\Programs\\Python\\Python39\\lib\\site-packages\\PIL\\PngImagePlugin.py',
   'PYMODULE'),
  ('PIL.ImageSequence',
   'C:\\Users\\tuang8ee\\AppData\\Local\\Programs\\Python\\Python39\\lib\\site-packages\\PIL\\ImageSequence.py',
   'PYMODULE'),
  ('PIL.ImageChops',
   'C:\\Users\\tuang8ee\\AppData\\Local\\Programs\\Python\\Python39\\lib\\site-packages\\PIL\\ImageChops.py',
   'PYMODULE'),
  ('PIL.Image',
   'C:\\Users\\tuang8ee\\AppData\\Local\\Programs\\Python\\Python39\\lib\\site-packages\\PIL\\Image.py',
   'PYMODULE'),
  ('PIL.ImImagePlugin',
   'C:\\Users\\tuang8ee\\AppData\\Local\\Programs\\Python\\Python39\\lib\\site-packages\\PIL\\ImImagePlugin.py',
   'PYMODULE'),
  ('PIL.IptcImagePlugin',
   'C:\\Users\\tuang8ee\\AppData\\Local\\Programs\\Python\\Python39\\lib\\site-packages\\PIL\\IptcImagePlugin.py',
   'PYMODULE'),
  ('PIL.PcdImagePlugin',
   'C:\\Users\\tuang8ee\\AppData\\Local\\Programs\\Python\\Python39\\lib\\site-packages\\PIL\\PcdImagePlugin.py',
   'PYMODULE'),
  ('PIL.SpiderImagePlugin',
   'C:\\Users\\tuang8ee\\AppData\\Local\\Programs\\Python\\Python39\\lib\\site-packages\\PIL\\SpiderImagePlugin.py',
   'PYMODULE'),
  ('PIL.ImageTk',
   'C:\\Users\\tuang8ee\\AppData\\Local\\Programs\\Python\\Python39\\lib\\site-packages\\PIL\\ImageTk.py',
   'PYMODULE'),
  ('PIL.PsdImagePlugin',
   'C:\\Users\\tuang8ee\\AppData\\Local\\Programs\\Python\\Python39\\lib\\site-packages\\PIL\\PsdImagePlugin.py',
   'PYMODULE'),
  ('PIL.ImtImagePlugin',
   'C:\\Users\\tuang8ee\\AppData\\Local\\Programs\\Python\\Python39\\lib\\site-packages\\PIL\\ImtImagePlugin.py',
   'PYMODULE'),
  ('PIL.FtexImagePlugin',
   'C:\\Users\\tuang8ee\\AppData\\Local\\Programs\\Python\\Python39\\lib\\site-packages\\PIL\\FtexImagePlugin.py',
   'PYMODULE'),
  ('PIL.SunImagePlugin',
   'C:\\Users\\tuang8ee\\AppData\\Local\\Programs\\Python\\Python39\\lib\\site-packages\\PIL\\SunImagePlugin.py',
   'PYMODULE'),
  ('PIL.MpoImagePlugin',
   'C:\\Users\\tuang8ee\\AppData\\Local\\Programs\\Python\\Python39\\lib\\site-packages\\PIL\\MpoImagePlugin.py',
   'PYMODULE'),
  ('PIL.WebPImagePlugin',
   'C:\\Users\\tuang8ee\\AppData\\Local\\Programs\\Python\\Python39\\lib\\site-packages\\PIL\\WebPImagePlugin.py',
   'PYMODULE'),
  ('PIL.Hdf5StubImagePlugin',
   'C:\\Users\\tuang8ee\\AppData\\Local\\Programs\\Python\\Python39\\lib\\site-packages\\PIL\\Hdf5StubImagePlugin.py',
   'PYMODULE'),
  ('PIL.IcnsImagePlugin',
   'C:\\Users\\tuang8ee\\AppData\\Local\\Programs\\Python\\Python39\\lib\\site-packages\\PIL\\IcnsImagePlugin.py',
   'PYMODULE'),
  ('PIL.features',
   'C:\\Users\\tuang8ee\\AppData\\Local\\Programs\\Python\\Python39\\lib\\site-packages\\PIL\\features.py',
   'PYMODULE'),
  ('PIL.DdsImagePlugin',
   'C:\\Users\\tuang8ee\\AppData\\Local\\Programs\\Python\\Python39\\lib\\site-packages\\PIL\\DdsImagePlugin.py',
   'PYMODULE'),
  ('PIL.DcxImagePlugin',
   'C:\\Users\\tuang8ee\\AppData\\Local\\Programs\\Python\\Python39\\lib\\site-packages\\PIL\\DcxImagePlugin.py',
   'PYMODULE'),
  ('PIL.MspImagePlugin',
   'C:\\Users\\tuang8ee\\AppData\\Local\\Programs\\Python\\Python39\\lib\\site-packages\\PIL\\MspImagePlugin.py',
   'PYMODULE'),
  ('PIL.PdfImagePlugin',
   'C:\\Users\\tuang8ee\\AppData\\Local\\Programs\\Python\\Python39\\lib\\site-packages\\PIL\\PdfImagePlugin.py',
   'PYMODULE'),
  ('PIL.PdfParser',
   'C:\\Users\\tuang8ee\\AppData\\Local\\Programs\\Python\\Python39\\lib\\site-packages\\PIL\\PdfParser.py',
   'PYMODULE'),
  ('PIL.SgiImagePlugin',
   'C:\\Users\\tuang8ee\\AppData\\Local\\Programs\\Python\\Python39\\lib\\site-packages\\PIL\\SgiImagePlugin.py',
   'PYMODULE'),
  ('PIL.BufrStubImagePlugin',
   'C:\\Users\\tuang8ee\\AppData\\Local\\Programs\\Python\\Python39\\lib\\site-packages\\PIL\\BufrStubImagePlugin.py',
   'PYMODULE'),
  ('PIL.GbrImagePlugin',
   'C:\\Users\\tuang8ee\\AppData\\Local\\Programs\\Python\\Python39\\lib\\site-packages\\PIL\\GbrImagePlugin.py',
   'PYMODULE'),
  ('PIL.CurImagePlugin',
   'C:\\Users\\tuang8ee\\AppData\\Local\\Programs\\Python\\Python39\\lib\\site-packages\\PIL\\CurImagePlugin.py',
   'PYMODULE'),
  ('PIL.PixarImagePlugin',
   'C:\\Users\\tuang8ee\\AppData\\Local\\Programs\\Python\\Python39\\lib\\site-packages\\PIL\\PixarImagePlugin.py',
   'PYMODULE'),
  ('PIL.XpmImagePlugin',
   'C:\\Users\\tuang8ee\\AppData\\Local\\Programs\\Python\\Python39\\lib\\site-packages\\PIL\\XpmImagePlugin.py',
   'PYMODULE'),
  ('PIL.FitsStubImagePlugin',
   'C:\\Users\\tuang8ee\\AppData\\Local\\Programs\\Python\\Python39\\lib\\site-packages\\PIL\\FitsStubImagePlugin.py',
   'PYMODULE'),
  ('PIL.GribStubImagePlugin',
   'C:\\Users\\tuang8ee\\AppData\\Local\\Programs\\Python\\Python39\\lib\\site-packages\\PIL\\GribStubImagePlugin.py',
   'PYMODULE'),
  ('PIL.Jpeg2KImagePlugin',
   'C:\\Users\\tuang8ee\\AppData\\Local\\Programs\\Python\\Python39\\lib\\site-packages\\PIL\\Jpeg2KImagePlugin.py',
   'PYMODULE'),
  ('PIL.FpxImagePlugin',
   'C:\\Users\\tuang8ee\\AppData\\Local\\Programs\\Python\\Python39\\lib\\site-packages\\PIL\\FpxImagePlugin.py',
   'PYMODULE'),
  ('PIL.MpegImagePlugin',
   'C:\\Users\\tuang8ee\\AppData\\Local\\Programs\\Python\\Python39\\lib\\site-packages\\PIL\\MpegImagePlugin.py',
   'PYMODULE'),
  ('PIL.WmfImagePlugin',
   'C:\\Users\\tuang8ee\\AppData\\Local\\Programs\\Python\\Python39\\lib\\site-packages\\PIL\\WmfImagePlugin.py',
   'PYMODULE'),
  ('PIL.FitsImagePlugin',
   'C:\\Users\\tuang8ee\\AppData\\Local\\Programs\\Python\\Python39\\lib\\site-packages\\PIL\\FitsImagePlugin.py',
   'PYMODULE'),
  ('PIL.TgaImagePlugin',
   'C:\\Users\\tuang8ee\\AppData\\Local\\Programs\\Python\\Python39\\lib\\site-packages\\PIL\\TgaImagePlugin.py',
   'PYMODULE'),
  ('PIL.XbmImagePlugin',
   'C:\\Users\\tuang8ee\\AppData\\Local\\Programs\\Python\\Python39\\lib\\site-packages\\PIL\\XbmImagePlugin.py',
   'PYMODULE'),
  ('PIL.McIdasImagePlugin',
   'C:\\Users\\tuang8ee\\AppData\\Local\\Programs\\Python\\Python39\\lib\\site-packages\\PIL\\McIdasImagePlugin.py',
   'PYMODULE'),
  ('PIL.EpsImagePlugin',
   'C:\\Users\\tuang8ee\\AppData\\Local\\Programs\\Python\\Python39\\lib\\site-packages\\PIL\\EpsImagePlugin.py',
   'PYMODULE'),
  ('PIL.FliImagePlugin',
   'C:\\Users\\tuang8ee\\AppData\\Local\\Programs\\Python\\Python39\\lib\\site-packages\\PIL\\FliImagePlugin.py',
   'PYMODULE'),
  ('PIL.XVThumbImagePlugin',
   'C:\\Users\\tuang8ee\\AppData\\Local\\Programs\\Python\\Python39\\lib\\site-packages\\PIL\\XVThumbImagePlugin.py',
   'PYMODULE'),
  ('PIL.PalmImagePlugin',
   'C:\\Users\\tuang8ee\\AppData\\Local\\Programs\\Python\\Python39\\lib\\site-packages\\PIL\\PalmImagePlugin.py',
   'PYMODULE'),
  ('PIL.BlpImagePlugin',
   'C:\\Users\\tuang8ee\\AppData\\Local\\Programs\\Python\\Python39\\lib\\site-packages\\PIL\\BlpImagePlugin.py',
   'PYMODULE'),
  ('PIL.IcoImagePlugin',
   'C:\\Users\\tuang8ee\\AppData\\Local\\Programs\\Python\\Python39\\lib\\site-packages\\PIL\\IcoImagePlugin.py',
   'PYMODULE'),
  ('PIL.MicImagePlugin',
   'C:\\Users\\tuang8ee\\AppData\\Local\\Programs\\Python\\Python39\\lib\\site-packages\\PIL\\MicImagePlugin.py',
   'PYMODULE'),
  ('PIL.PcxImagePlugin',
   'C:\\Users\\tuang8ee\\AppData\\Local\\Programs\\Python\\Python39\\lib\\site-packages\\PIL\\PcxImagePlugin.py',
   'PYMODULE'),
  ('PIL.TiffImagePlugin',
   'C:\\Users\\tuang8ee\\AppData\\Local\\Programs\\Python\\Python39\\lib\\site-packages\\PIL\\TiffImagePlugin.py',
   'PYMODULE'),
  ('PIL.ImageOps',
   'C:\\Users\\tuang8ee\\AppData\\Local\\Programs\\Python\\Python39\\lib\\site-packages\\PIL\\ImageOps.py',
   'PYMODULE'),
  ('PIL.ImageShow',
   'C:\\Users\\tuang8ee\\AppData\\Local\\Programs\\Python\\Python39\\lib\\site-packages\\PIL\\ImageShow.py',
   'PYMODULE'),
  ('PIL.ImageQt',
   'C:\\Users\\tuang8ee\\AppData\\Local\\Programs\\Python\\Python39\\lib\\site-packages\\PIL\\ImageQt.py',
   'PYMODULE'),
  ('PIL.ImageFilter',
   'C:\\Users\\tuang8ee\\AppData\\Local\\Programs\\Python\\Python39\\lib\\site-packages\\PIL\\ImageFilter.py',
   'PYMODULE'),
  ('PIL.PyAccess',
   'C:\\Users\\tuang8ee\\AppData\\Local\\Programs\\Python\\Python39\\lib\\site-packages\\PIL\\PyAccess.py',
   'PYMODULE'),
  ('PIL.PpmImagePlugin',
   'C:\\Users\\tuang8ee\\AppData\\Local\\Programs\\Python\\Python39\\lib\\site-packages\\PIL\\PpmImagePlugin.py',
   'PYMODULE'),
  ('PIL.JpegImagePlugin',
   'C:\\Users\\tuang8ee\\AppData\\Local\\Programs\\Python\\Python39\\lib\\site-packages\\PIL\\JpegImagePlugin.py',
   'PYMODULE'),
  ('PIL.JpegPresets',
   'C:\\Users\\tuang8ee\\AppData\\Local\\Programs\\Python\\Python39\\lib\\site-packages\\PIL\\JpegPresets.py',
   'PYMODULE'),
  ('PIL.GifImagePlugin',
   'C:\\Users\\tuang8ee\\AppData\\Local\\Programs\\Python\\Python39\\lib\\site-packages\\PIL\\GifImagePlugin.py',
   'PYMODULE'),
  ('PIL.TiffTags',
   'C:\\Users\\tuang8ee\\AppData\\Local\\Programs\\Python\\Python39\\lib\\site-packages\\PIL\\TiffTags.py',
   'PYMODULE'),
  ('PIL.ImageMode',
   'C:\\Users\\tuang8ee\\AppData\\Local\\Programs\\Python\\Python39\\lib\\site-packages\\PIL\\ImageMode.py',
   'PYMODULE'),
  ('PIL',
   'C:\\Users\\tuang8ee\\AppData\\Local\\Programs\\Python\\Python39\\lib\\site-packages\\PIL\\__init__.py',
   'PYMODULE'),
  ('PIL.ImageDraw2',
   'C:\\Users\\tuang8ee\\AppData\\Local\\Programs\\Python\\Python39\\lib\\site-packages\\PIL\\ImageDraw2.py',
   'PYMODULE'),
  ('PIL.ImagePath',
   'C:\\Users\\tuang8ee\\AppData\\Local\\Programs\\Python\\Python39\\lib\\site-packages\\PIL\\ImagePath.py',
   'PYMODULE'),
  ('PIL.ImageDraw',
   'C:\\Users\\tuang8ee\\AppData\\Local\\Programs\\Python\\Python39\\lib\\site-packages\\PIL\\ImageDraw.py',
   'PYMODULE'),
  ('PIL.ImageFont',
   'C:\\Users\\tuang8ee\\AppData\\Local\\Programs\\Python\\Python39\\lib\\site-packages\\PIL\\ImageFont.py',
   'PYMODULE'),
  ('PIL._version',
   'C:\\Users\\tuang8ee\\AppData\\Local\\Programs\\Python\\Python39\\lib\\site-packages\\PIL\\_version.py',
   'PYMODULE'),
  ('pyscreeze',
   'C:\\Users\\tuang8ee\\AppData\\Local\\Programs\\Python\\Python39\\lib\\site-packages\\pyscreeze\\__init__.py',
   'PYMODULE'),
  ('pymsgbox',
   'C:\\Users\\tuang8ee\\AppData\\Local\\Programs\\Python\\Python39\\lib\\site-packages\\pymsgbox\\__init__.py',
   'PYMODULE'),
  ('pymsgbox._native_win',
   'C:\\Users\\tuang8ee\\AppData\\Local\\Programs\\Python\\Python39\\lib\\site-packages\\pymsgbox\\_native_win.py',
   'PYMODULE'),
  ('pytweening',
   'C:\\Users\\tuang8ee\\AppData\\Local\\Programs\\Python\\Python39\\lib\\site-packages\\pytweening\\__init__.py',
   'PYMODULE'),
  ('__future__',
   'C:\\Users\\tuang8ee\\AppData\\Local\\Programs\\Python\\Python39\\lib\\__future__.py',
   'PYMODULE'),
  ('ViewModel.ChangeStateEvent',
   'D:\\MyApp\\myapp\\Mazii_Search_App\\Source\\ViewModel\\ChangeStateEvent.py',
   'PYMODULE'),
  ('ViewModel.SettingViewModel',
   'D:\\MyApp\\myapp\\Mazii_Search_App\\Source\\ViewModel\\SettingViewModel.py',
   'PYMODULE'),
  ('ViewModel.MainViewModel',
   'D:\\MyApp\\myapp\\Mazii_Search_App\\Source\\ViewModel\\MainViewModel.py',
   'PYMODULE'),
  ('View.DictionaryView',
   'D:\\MyApp\\myapp\\Mazii_Search_App\\Source\\View\\DictionaryView.py',
   'PYMODULE'),
  ('View', '-', 'PYMODULE'),
  ('View.Browser',
   'D:\\MyApp\\myapp\\Mazii_Search_App\\Source\\View\\Browser.py',
   'PYMODULE'),
  ('cefpython3',
   'C:\\Users\\tuang8ee\\AppData\\Local\\Programs\\Python\\Python39\\lib\\site-packages\\cefpython3\\__init__.py',
   'PYMODULE'),
  ('View.SettingView',
   'D:\\MyApp\\myapp\\Mazii_Search_App\\Source\\View\\SettingView.py',
   'PYMODULE'),
  ('tkinter.messagebox',
   'C:\\Users\\tuang8ee\\AppData\\Local\\Programs\\Python\\Python39\\lib\\tkinter\\messagebox.py',
   'PYMODULE'),
  ('tkinter.commondialog',
   'C:\\Users\\tuang8ee\\AppData\\Local\\Programs\\Python\\Python39\\lib\\tkinter\\commondialog.py',
   'PYMODULE'),
  ('turtle',
   'C:\\Users\\tuang8ee\\AppData\\Local\\Programs\\Python\\Python39\\lib\\turtle.py',
   'PYMODULE'),
  ('tkinter.simpledialog',
   'C:\\Users\\tuang8ee\\AppData\\Local\\Programs\\Python\\Python39\\lib\\tkinter\\simpledialog.py',
   'PYMODULE'),
  ('View.MainView',
   'D:\\MyApp\\myapp\\Mazii_Search_App\\Source\\View\\MainView.py',
   'PYMODULE'),
  ('tkinter',
   'C:\\Users\\tuang8ee\\AppData\\Local\\Programs\\Python\\Python39\\lib\\tkinter\\__init__.py',
   'PYMODULE'),
  ('tkinter.constants',
   'C:\\Users\\tuang8ee\\AppData\\Local\\Programs\\Python\\Python39\\lib\\tkinter\\constants.py',
   'PYMODULE'),
  ('os',
   'C:\\Users\\tuang8ee\\AppData\\Local\\Programs\\Python\\Python39\\lib\\os.py',
   'PYMODULE')])
